TrabajoPracticoFinal/lavarropas_tb.vcd
$date
  Tue Jun 28 21:37:13 2022
$end
$version
  GHDL v0
$end
$timescale
  1 fs
$end
$scope module standard $end
$upscope $end
$scope module std_logic_1164 $end
$upscope $end
$scope module lavarropas_tb $end
$var reg 3 ! perilla[2:0] $end
$var reg 1 " inicio $end
$var reg 1 # clk $end
$var reg 1 $ led_tapa $end
$var reg 1 % led_lavado $end
$var reg 1 & led_centrifugado $end
$var reg 1 ' led_enjuague $end
$var reg 1 ( sal_sensor0 $end
$var reg 1 ) sal_sensor1 $end
$var reg 1 * sal_sensor2 $end
$var reg 1 + sal_sensor3 $end
$var reg 1 , sal_sensor4 $end
$scope module uut $end
$var reg 3 - perilla[2:0] $end
$var reg 1 . inicio $end
$var reg 1 / clk $end
$var reg 1 0 led_tapa $end
$var reg 1 1 led_lavado $end
$var reg 1 2 led_centrifugado $end
$var reg 1 3 led_enjuague $end
$var reg 1 4 sal_sensor0 $end
$var reg 1 5 sal_sensor1 $end
$var reg 1 6 sal_sensor2 $end
$var reg 1 7 sal_sensor3 $end
$var reg 1 8 sal_sensor4 $end
$var integer 32 9 cont $end
$var reg 1 : act_vj $end
$var reg 1 ; act_vs $end
$var reg 1 < act_vl $end
$var reg 1 = act_vv $end
$var reg 1 > alt $end
$var reg 1 ? med $end
$var reg 1 @ act_bomba $end
$var reg 1 A act_electroiman $end
$var reg 1 B salida_electroiman $end
$var reg 6 C state_reg[5:0] $end
$var reg 6 D next_state[5:0] $end
$var reg 2 E camino[1:0] $end
$scope module vs $end
$var reg 1 F act_valvula $end
$upscope $end
$scope module vj $end
$var reg 1 G act_valvula $end
$upscope $end
$scope module vl $end
$var reg 1 H act_valvula $end
$upscope $end
$scope module vv $end
$var reg 1 I act_valvula $end
$upscope $end
$scope module cvm $end
$var reg 1 J med $end
$var reg 1 K alt $end
$upscope $end
$scope module cb $end
$var reg 1 L act_bomba $end
$upscope $end
$scope module tt $end
$var reg 1 M act_electroiman $end
$var reg 1 N salida_electroiman $end
$upscope $end
$upscope $end
$upscope $end
$enddefinitions $end
#0
b111 !
1"
0#
0$
0%
0&
0'
0(
0)
0*
0+
0,
b111 -
1.
0/
00
01
02
03
04
05
06
07
08
b0 9
0:
0;
0<
0=
0>
0?
0@
0A
0B
bUUUUUU C
bUUUUUU D
b00 E
0F
0G
0H
0I
0J
0K
0L
0M
0N
#500000
1#
1/
b000001 C
b000001 D
#1000000
0#
0/
#1500000
1#
1/
b010000 C
b010000 D
#2000000
0#
0/
#2500000
1#
1/
b1 9
1A
1B
1M
1N
#3000000
0#
0/
#3500000
1#
1$
1/
10
b10 9
1:
1<
1G
1H
#4000000
0#
0/
#4500000
1#
1/
b11 9
#5000000
0"
0#
1(
1*
0.
0/
14
16
#5500000
1#
1/
b0 9
0:
0<
b000010 C
b000010 D
0G
0H
#6000000
0#
0/
#6500000
1#
1/
b1 9
#7000000
0#
0/
#7500000
1#
1%
1/
11
b10 9
1?
1J
#8000000
0#
0/
#8500000
1#
1/
b11 9
#9000000
0#
0/
#9500000
1#
1/
b100 9
#10000000
0#
0/
#10500000
1#
1/
b101 9
#11000000
0#
0/
#11500000
1#
1/
b110 9
#12000000
0#
0/
#12500000
1#
1/
b111 9
#13000000
0#
0/
#13500000
1#
1/
b1000 9
#14000000
0#
0/
#14500000
1#
1/
b1001 9
#15000000
0#
0/
#15500000
1#
1/
b1010 9
#16000000
0#
0/
#16500000
1#
1/
b1011 9
#17000000
0#
0/
#17500000
1#
1/
b1100 9
#18000000
0#
0/
#18500000
1#
1/
b1101 9
#19000000
0#
0/
#19500000
1#
1/
b1110 9
#20000000
0#
0/
#20500000
1#
1/
b1111 9
#21000000
0#
0/
#21500000
1#
1/
b10000 9
#22000000
0#
0/
#22500000
1#
1/
b10001 9
#23000000
0#
0/
#23500000
1#
1/
b10010 9
#24000000
0#
0/
#24500000
1#
1/
b10011 9
#25000000
0#
0/
#25500000
1#
1/
b10100 9
#26000000
0#
0/
#26500000
1#
1/
b10101 9
#27000000
0#
0/
#27500000
1#
1/
b10110 9
#28000000
0#
0/
#28500000
1#
1/
b10111 9
#29000000
0#
0/
#29500000
1#
1/
b11000 9
#30000000
0#
0/
#30500000
1#
1/
b11001 9
#31000000
0#
0/
#31500000
1#
1/
b11010 9
#32000000
0#
0/
#32500000
1#
1/
b11011 9
#33000000
0#
0/
#33500000
1#
1/
b11100 9
#34000000
0#
0/
#34500000
1#
1/
b11101 9
#35000000
0#
0/
#35500000
1#
1/
b11110 9
#36000000
0#
0/
#36500000
1#
1/
b11111 9
#37000000
0#
0/
#37500000
1#
0%
1/
01
b0 9
0?
b100000 C
b100000 D
b01 E
0J
#38000000
0#
0/
#38500000
1#
1/
b1 9
#39000000
0#
0/
#39500000
1#
1/
b10 9
1=
1@
1I
1L
#40000000
0#
0/
#40500000
1#
1/
b11 9
#41000000
0#
0(
0*
0/
04
06
#41500000
1#
1/
b0 9
0=
0@
b010000 C
b010000 D
0I
0L
#42000000
0#
0/
#42500000
1#
1/
b1 9
#43000000
0#
0/
#43500000
1#
1/
b10 9
1;
1<
1F
1H
#44000000
0#
0/
#44500000
1#
1/
b11 9
#45000000
0#
0/
#45500000
1#
1/
b100 9
#46000000
0#
0/
#46500000
1#
1/
b101 9
#47000000
0#
1(
1*
0/
14
16
#47500000
1#
1/
b0 9
0;
0<
b000100 C
b000100 D
0F
0H
#48000000
0#
0/
#48500000
1#
1/
b1 9
#49000000
0#
0/
#49500000
1#
1'
1/
13
b10 9
1?
1J
#50000000
0#
0/
#50500000
1#
1/
b11 9
#51000000
0#
0/
#51500000
1#
1/
b100 9
#52000000
0#
0/
#52500000
1#
1/
b101 9
#53000000
0#
0/
#53500000
1#
1/
b110 9
#54000000
0#
0/
#54500000
1#
1/
b111 9
#55000000
0#
0/
#55500000
1#
1/
b1000 9
#56000000
0#
0/
#56500000
1#
1/
b1001 9
#57000000
0#
0/
#57500000
1#
1/
b1010 9
#58000000
0#
0/
#58500000
1#
1/
b1011 9
#59000000
0#
0/
#59500000
1#
1/
b1100 9
#60000000
0#
0/
#60500000
1#
1/
b1101 9
#61000000
0#
0/
#61500000
1#
1/
b1110 9
#62000000
0#
0/
#62500000
1#
1/
b1111 9
#63000000
0#
0/
#63500000
1#
1/
b10000 9
#64000000
0#
0/
#64500000
1#
1/
b10001 9
#65000000
0#
0/
#65500000
1#
1/
b10010 9
#66000000
0#
0/
#66500000
1#
1/
b10011 9
#67000000
0#
0/
#67500000
1#
1/
b10100 9
#68000000
0#
0/
#68500000
1#
1/
b10101 9
#69000000
0#
0/
#69500000
1#
1/
b10110 9
#70000000
0#
0/
#70500000
1#
1/
b10111 9
#71000000
0#
0/
#71500000
1#
1/
b11000 9
#72000000
0#
0/
#72500000
1#
1/
b11001 9
#73000000
0#
0/
#73500000
1#
1/
b11010 9
#74000000
0#
0/
#74500000
1#
1/
b11011 9
#75000000
0#
0/
#75500000
1#
1/
b11100 9
#76000000
0#
0/
#76500000
1#
1/
b11101 9
#77000000
0#
0/
#77500000
1#
1/
b11110 9
#78000000
0#
0/
#78500000
1#
1/
b11111 9
#79000000
0#
0/
#79500000
1#
0'
1/
03
b0 9
0?
b100000 C
b100000 D
b10 E
0J
#80000000
0#
0/
#80500000
1#
1/
b1 9
#81000000
0#
0/
#81500000
1#
1/
b10 9
1=
1@
1I
1L
#82000000
0#
0/
#82500000
1#
1/
b11 9
#83000000
0#
0(
0*
0/
04
06
#83500000
1#
1/
b0 9
0=
0@
b001000 C
b001000 D
0I
0L
#84000000
0#
0/
#84500000
1#
1/
b1 9
#85000000
0#
0/
#85500000
1#
1&
1/
12
b10 9
1>
1K
#86000000
0#
0/
#86500000
1#
1/
b11 9
#87000000
0#
0/
#87500000
1#
1/
b100 9
#88000000
0#
0/
#88500000
1#
1/
b101 9
#89000000
0#
0/
#89500000
1#
1/
b110 9
#90000000
0#
0/
#90500000
1#
1/
b111 9
#91000000
0#
0/
#91500000
1#
1/
b1000 9
#92000000
0#
0/
#92500000
1#
1/
b1001 9
#93000000
0#
1(
0/
14
#93500000
1#
1/
b1010 9
#94000000
0#
0/
#94500000
1#
1/
b1011 9
#95000000
0#
0/
#95500000
1#
1/
b1100 9
#96000000
0#
0/
#96500000
1#
1/
b1101 9
#97000000
0#
0/
#97500000
1#
1/
b1110 9
#98000000
0#
0/
#98500000
1#
1/
b1111 9
#99000000
0#
0/
#99500000
1#
1/
b10000 9
#100000000
0#
0/
#100500000
1#
0&
1/
02
b0 9
0>
b100000 C
b100000 D
b00 E
0K
#101000000
0#
0/
#101500000
1#
1/
b1 9
#102000000
0#
0/
#102500000
1#
1/
b10 9
1=
1@
1I
1L
#103000000
0#
0/
#103500000
1#
1/
b11 9
#104000000
0#
0(
0/
04
#104500000
1#
1/
b0 9
0=
0@
b000001 C
b000001 D
0I
0L
#105000000
0#
0/
#105500000
1#
1/
0A
0B
0M
0N
#106000000
0#
0/
#106500000
1#
0$
1/
00
