TrabajoPracticoFinal/lavarropas_tb.vcd
$date
  Tue Jun 28 15:18:41 2022
$end
$version
  GHDL v0
$end
$timescale
  1 fs
$end
$scope module standard $end
$upscope $end
$scope module std_logic_1164 $end
$upscope $end
$scope module lavarropas_tb $end
$var reg 3 ! perilla[2:0] $end
$var reg 1 " inicio $end
$var reg 1 # clk $end
$var reg 1 $ led_tapa $end
$var reg 1 % led_lavado $end
$var reg 1 & led_centrifugado $end
$var reg 1 ' led_enjuague $end
$var reg 1 ( sal_sensor0 $end
$var reg 1 ) sal_sensor1 $end
$var reg 1 * sal_sensor2 $end
$var reg 1 + sal_sensor3 $end
$var reg 1 , sal_sensor4 $end
$scope module uut $end
$var reg 3 - perilla[2:0] $end
$var reg 1 . inicio $end
$var reg 1 / clk $end
$var reg 1 0 led_tapa $end
$var reg 1 1 led_lavado $end
$var reg 1 2 led_centrifugado $end
$var reg 1 3 led_enjuague $end
$var reg 1 4 sal_sensor0 $end
$var reg 1 5 sal_sensor1 $end
$var reg 1 6 sal_sensor2 $end
$var reg 1 7 sal_sensor3 $end
$var reg 1 8 sal_sensor4 $end
$var integer 32 9 cont $end
$var reg 1 : act_vj $end
$var reg 1 ; act_vs $end
$var reg 1 < act_vl $end
$var reg 1 = act_vv $end
$var reg 1 > alt $end
$var reg 1 ? med $end
$var reg 1 @ act_bomba $end
$var reg 1 A act_electroiman $end
$var reg 1 B salida_electroiman $end
$var reg 6 C state_reg[5:0] $end
$var reg 6 D next_state[5:0] $end
$var reg 2 E camino[1:0] $end
$scope module vs $end
$var reg 1 F act_valvula $end
$upscope $end
$scope module vj $end
$var reg 1 G act_valvula $end
$upscope $end
$scope module vl $end
$var reg 1 H act_valvula $end
$upscope $end
$scope module vv $end
$var reg 1 I act_valvula $end
$upscope $end
$scope module cvm $end
$var reg 1 J med $end
$var reg 1 K alt $end
$upscope $end
$scope module cb $end
$var reg 1 L act_bomba $end
$upscope $end
$scope module tt $end
$var reg 1 M act_electroiman $end
$var reg 1 N salida_electroiman $end
$upscope $end
$upscope $end
$upscope $end
$enddefinitions $end
#0
b001 !
1"
0#
0$
0%
0&
0'
0(
0)
0*
0+
0,
b001 -
1.
0/
00
01
02
03
04
05
06
07
08
b0 9
0:
0;
0<
0=
0>
0?
0@
0A
0B
bUUUUUU C
bUUUUUU D
b00 E
0F
0G
0H
0I
0J
0K
0L
0M
0N
#500000
1#
1/
b000001 C
b000001 D
#1000000
0#
0/
#1500000
1#
1/
b010000 C
b010000 D
#2000000
0#
0/
#2500000
1#
1/
b1 9
1A
1B
1M
1N
#3000000
0"
0#
0.
0/
#3500000
1#
1$
1/
10
b10 9
1:
1<
1G
1H
#4000000
0#
0/
#4500000
1#
1/
b11 9
#5000000
0#
0/
#5500000
1#
1/
b100 9
#6000000
0#
0/
#6500000
1#
1/
b101 9
#7000000
0#
0/
#7500000
1#
1/
b110 9
#8000000
0#
0/
#8500000
1#
1/
b0 9
0:
0<
b100000 C
b100000 D
b11 E
0G
0H
#9000000
0#
0/
#9500000
1#
1/
b1 9
#10000000
0#
0/
#10500000
1#
1/
b0 9
b000001 C
b000001 D
#11000000
0#
0/
#11500000
1#
1/
0A
0B
0M
0N
#12000000
0#
0/
#12500000
1#
0$
1/
00
