TrabajoPracticoFinal/lavarropas_tb.vcd
$date
  Sat Jun 25 12:17:55 2022
$end
$version
  GHDL v0
$end
$timescale
  1 fs
$end
$scope module standard $end
$upscope $end
$scope module std_logic_1164 $end
$upscope $end
$scope module lavarropas_tb $end
$var reg 3 ! perilla[2:0] $end
$var reg 1 " inicio $end
$var reg 1 # clk $end
$var reg 1 $ led_tapa $end
$var reg 1 % led_lavado $end
$var reg 1 & led_centrifugado $end
$var reg 1 ' led_enjuague $end
$scope module uut $end
$var reg 3 ( perilla[2:0] $end
$var reg 1 ) inicio $end
$var reg 1 * clk $end
$var reg 1 + led_tapa $end
$var reg 1 , led_lavado $end
$var reg 1 - led_centrifugado $end
$var reg 1 . led_enjuague $end
$var integer 32 / contador $end
$var reg 1 0 act_vj $end
$var reg 1 1 act_vs $end
$var reg 1 2 act_vl $end
$var reg 1 3 act_vv $end
$var reg 1 4 alt $end
$var reg 1 5 med $end
$var reg 1 6 act_bomba $end
$var reg 1 7 act_electroiman $end
$var reg 1 8 salida_electroiman $end
$var reg 1 9 sal_sensor0 $end
$var reg 1 : sal_sensor1 $end
$var reg 1 ; sal_sensor2 $end
$var reg 1 < sal_sensor3 $end
$var reg 1 = sal_sensor4 $end
$var reg 5 > state_reg[4:0] $end
$var reg 5 ? next_state[4:0] $end
$var reg 2 @ lavado_flag[1:0] $end
$scope module vs $end
$var reg 1 A act_valvula $end
$upscope $end
$scope module vj $end
$var reg 1 B act_valvula $end
$upscope $end
$scope module vl $end
$var reg 1 C act_valvula $end
$upscope $end
$scope module vv $end
$var reg 1 D act_valvula $end
$upscope $end
$scope module cvm $end
$var reg 1 E med $end
$var reg 1 F alt $end
$upscope $end
$scope module cb $end
$var reg 1 G act_bomba $end
$upscope $end
$scope module tt $end
$var reg 1 H act_electroiman $end
$var reg 1 I salida_electroiman $end
$upscope $end
$upscope $end
$upscope $end
$enddefinitions $end
#0
b000 !
U"
0#
0$
0%
0&
0'
b000 (
U)
0*
0+
0,
0-
0.
b0 /
00
01
02
03
04
05
06
07
08
09
0:
1;
0<
0=
bUUUUU >
bUUUUU ?
b00 @
0A
0B
0C
0D
0E
0F
0G
0H
0I
#500000
1#
1*
b00001 >
b00001 ?
#1000000
0#
0*
#1500000
1#
1*
#2000000
0#
0*
#2500000
1#
1*
#3000000
0#
0*
#3500000
1#
1*
#4000000
0#
0*
#4500000
1#
1*
#5000000
1"
0#
1)
0*
#5500000
1#
1*
b1 /
#6000000
0#
0*
#6500000
1#
1*
b10 /
#7000000
0#
0*
#7500000
1#
1*
b11 /
#8000000
0"
0#
0)
0*
#8500000
1#
1*
b0 /
#9000000
0#
0*
#9500000
1#
1*
#10000000
0#
0*
#10500000
1#
1*
#11000000
0#
0*
#11500000
1#
1*
#12000000
0#
0*
#12500000
1#
1*
#13000000
b001 !
1"
0#
b001 (
1)
0*
#13500000
1#
1*
b00010 >
b00010 ?
#14000000
0#
0*
#14500000
1#
1*
b1 /
#15000000
0#
0*
#15500000
1#
1%
1*
1,
b10 /
10
12
17
18
1B
1C
1H
1I
#16000000
0"
0#
0)
0*
#16500000
1#
1$
1*
1+
b11 /
#17000000
0#
0*
#17500000
1#
1*
b100 /
#18000000
0#
0*
#18500000
1#
1*
b101 /
#19000000
0#
0*
#19500000
1#
1*
b110 /
#20000000
0#
0*
#20500000
1#
1*
b111 /
00
02
15
0B
0C
1E
#21000000
0#
0*
#21500000
1#
1*
b1000 /
#22000000
0#
0*
#22500000
1#
1*
b1001 /
#23000000
0#
0*
#23500000
1#
1*
b1010 /
#24000000
0#
0*
#24500000
1#
1*
b1011 /
#25000000
0#
0*
#25500000
1#
1*
b1100 /
#26000000
0#
0*
#26500000
1#
1*
b1101 /
#27000000
0#
0*
#27500000
1#
1*
b1110 /
#28000000
0#
0*
#28500000
1#
1*
b1111 /
#29000000
0#
0*
#29500000
1#
1*
b10000 /
#30000000
0#
0*
#30500000
1#
1*
b10001 /
#31000000
0#
0*
#31500000
1#
1*
b10010 /
#32000000
0#
0*
#32500000
1#
1*
b10011 /
#33000000
0#
0*
#33500000
1#
1*
b10100 /
#34000000
0#
0*
#34500000
1#
1*
b10101 /
#35000000
0#
0*
#35500000
1#
1*
b10110 /
#36000000
0#
0*
#36500000
1#
1*
b10111 /
#37000000
0#
0*
#37500000
1#
1*
b11000 /
#38000000
0#
0*
#38500000
1#
1*
b11001 /
#39000000
0#
0*
#39500000
1#
1*
b11010 /
#40000000
0#
0*
#40500000
1#
1*
b11011 /
#41000000
0#
0*
#41500000
1#
1*
b11100 /
#42000000
0#
0*
#42500000
1#
1*
b11101 /
#43000000
0#
0*
#43500000
1#
1*
b11110 /
#44000000
0#
0*
#44500000
1#
1*
b11111 /
#45000000
0#
0*
#45500000
1#
1*
b100000 /
#46000000
0#
0*
#46500000
1#
1*
b100001 /
#47000000
0#
0*
#47500000
1#
1*
b100010 /
#48000000
0#
0*
#48500000
1#
1*
b100011 /
#49000000
0#
0*
#49500000
1#
1*
b100100 /
#50000000
0#
0*
#50500000
1#
0%
1*
0,
b0 /
05
b10000 >
b10000 ?
b01 @
0E
#51000000
0#
0*
#51500000
1#
1*
b1 /
#52000000
0#
0*
#52500000
1#
1*
b10 /
13
16
1D
1G
#53000000
0#
0*
#53500000
1#
1*
b11 /
#54000000
0#
0*
#54500000
1#
1*
b100 /
#55000000
0#
0*
#55500000
1#
1*
b101 /
#56000000
0#
0*
#56500000
1#
1*
b110 /
#57000000
0#
0*
#57500000
1#
1*
b0 /
03
06
b00001 >
b00001 ?
0D
0G
#58000000
0#
0*
#58500000
1#
1*
07
08
0H
0I
#59000000
0#
0*
#59500000
1#
0$
1*
0+
#60000000
0#
0*
#60500000
1#
1*
#61000000
0#
0*
#61500000
1#
1*
#62000000
0#
0*
#62500000
1#
1*
#63000000
0#
0*
#63500000
1#
1*
#64000000
0#
0*
#64500000
1#
1*
#65000000
0#
0*
#65500000
1#
1*
#66000000
b010 !
1"
0#
b010 (
1)
0*
#66500000
1#
1*
b00100 >
b00100 ?
#67000000
0#
0*
#67500000
1#
1*
b1 /
#68000000
0#
0*
#68500000
1#
1'
1*
1.
b10 /
11
12
17
18
1A
1C
1H
1I
#69000000
0"
0#
0)
0*
#69500000
1#
1$
1*
1+
b11 /
#70000000
0#
0*
#70500000
1#
1*
b100 /
#71000000
0#
0*
#71500000
1#
1*
b101 /
#72000000
0#
0*
#72500000
1#
1*
b110 /
#73000000
0#
0*
#73500000
1#
1*
b111 /
01
02
15
0A
0C
1E
#74000000
0#
0*
#74500000
1#
1*
b1000 /
#75000000
0#
0*
#75500000
1#
1*
b1001 /
#76000000
0#
0*
#76500000
1#
1*
b1010 /
#77000000
0#
0*
#77500000
1#
1*
b1011 /
#78000000
0#
0*
#78500000
1#
1*
b1100 /
#79000000
0#
0*
#79500000
1#
1*
b1101 /
#80000000
0#
0*
#80500000
1#
1*
b1110 /
#81000000
0#
0*
#81500000
1#
1*
b1111 /
#82000000
0#
0*
#82500000
1#
1*
b10000 /
#83000000
0#
0*
#83500000
1#
1*
b10001 /
#84000000
0#
0*
#84500000
1#
1*
b10010 /
#85000000
0#
0*
#85500000
1#
1*
b10011 /
#86000000
0#
0*
#86500000
1#
1*
b10100 /
#87000000
0#
0*
#87500000
1#
1*
b10101 /
#88000000
0#
0*
#88500000
1#
1*
b10110 /
#89000000
0#
0*
#89500000
1#
1*
b10111 /
#90000000
0#
0*
#90500000
1#
1*
b11000 /
#91000000
0#
0*
#91500000
1#
1*
b11001 /
#92000000
0#
0*
#92500000
1#
1*
b11010 /
#93000000
0#
0*
#93500000
1#
1*
b11011 /
#94000000
0#
0*
#94500000
1#
1*
b11100 /
#95000000
0#
0*
#95500000
1#
1*
b11101 /
#96000000
0#
0*
#96500000
1#
1*
b11110 /
#97000000
0#
0*
#97500000
1#
1*
b11111 /
#98000000
0#
0*
#98500000
1#
1*
b100000 /
#99000000
0#
0*
#99500000
1#
1*
b100001 /
#100000000
0#
0*
#100500000
1#
1*
b100010 /
#101000000
0#
0*
#101500000
1#
1*
b100011 /
#102000000
0#
0*
#102500000
1#
1*
b100100 /
#103000000
0#
0*
#103500000
1#
0'
1*
0.
b0 /
05
b10000 >
b10000 ?
0E
#104000000
0#
0*
#104500000
1#
1*
b1 /
#105000000
0#
0*
#105500000
1#
1*
b10 /
13
16
1D
1G
#106000000
0#
0*
#106500000
1#
1*
b11 /
#107000000
0#
0*
#107500000
1#
1*
b100 /
#108000000
0#
0*
#108500000
1#
1*
b101 /
#109000000
0#
0*
#109500000
1#
1*
b110 /
#110000000
0#
0*
#110500000
1#
1*
b0 /
03
06
b00001 >
b00001 ?
0D
0G
#111000000
0#
0*
#111500000
1#
1*
07
08
0H
0I
#112000000
0#
0*
#112500000
1#
0$
1*
0+
#113000000
0#
0*
#113500000
1#
1*
#114000000
0#
0*
#114500000
1#
1*
#115000000
0#
0*
#115500000
1#
1*
#116000000
0#
0*
#116500000
1#
1*
#117000000
0#
0*
#117500000
1#
1*
#118000000
0#
0*
#118500000
1#
1*
#119000000
b100 !
1"
0#
b100 (
1)
0*
#119500000
1#
1*
b01000 >
b01000 ?
#120000000
0#
0*
#120500000
1#
1*
b1 /
#121000000
0#
0*
#121500000
1#
1&
1*
1-
b10 /
14
17
18
1F
1H
1I
#122000000
0"
0#
0)
0*
#122500000
1#
1$
1*
1+
b11 /
#123000000
0#
0*
#123500000
1#
1*
b100 /
#124000000
0#
0*
#124500000
1#
1*
b101 /
#125000000
0#
0*
#125500000
1#
1*
b110 /
#126000000
0#
0*
#126500000
1#
1*
b111 /
#127000000
0#
0*
#127500000
1#
1*
b1000 /
#128000000
0#
0*
#128500000
1#
1*
b1001 /
#129000000
0#
0*
#129500000
1#
1*
b1010 /
#130000000
0#
0*
#130500000
1#
1*
b1011 /
#131000000
0#
0*
#131500000
1#
1*
b1100 /
#132000000
0#
0*
#132500000
1#
1*
b1101 /
#133000000
0#
0*
#133500000
1#
1*
b1110 /
#134000000
0#
0*
#134500000
1#
1*
b1111 /
#135000000
0#
0*
#135500000
1#
1*
b10000 /
#136000000
0#
0*
#136500000
1#
0&
1*
0-
b0 /
04
b00001 >
b00001 ?
0F
#137000000
0#
0*
#137500000
1#
1*
07
08
0H
0I
#138000000
0#
0*
#138500000
1#
0$
1*
0+
